%YAML 1.1
%TAG !u! tag:unity3d.com,2011:
--- !u!1045 &1
EditorBuildSettings:
  m_ObjectHideFlags: 0
  serializedVersion: 2
  m_Scenes:
  - enabled: 1
    path: Assets/Test Level/Scenes/Main Test Level.unity
    guid: 217eda0a979ea1a429b9644ad2bdd9e3
  - enabled: 1
    path: Assets/Test Level/Scenes/Test Level Items.unity
    guid: 3294812bd4803dd429e1e423588273c7
  m_configObjects:
    com.unity.addressableassets: {fileID: 11400000, guid: 785617aae2a7cc84bb9653a79a308c5c, type: 2}
    com.unity.input.settings: {fileID: 11400000, guid: 256b2595badec834db8709f07bf2198a, type: 2}
    com.unity.localization.settings: {fileID: 11400000, guid: cb1a00555896ac74e94b5c3b6dfbd404, type: 2}
